{
    "1min_AAPL.csv-bi-lstm-r2": "0.9991440202686156",
    "1min_AAPL.csv-bi-lstm-rmse": "0.0032335694413632154",
    "1min_AAPL.csv-bi-lstm-mae": "0.002814929699525237",
    "1min_AAPL.csv-bi-lstm-mse": "1.0455971278133802e-05",
    "1min_AAPL.csv-bi-lstm-test_length": 10168
}