{
    "1min_VEU.csv-ensemble-r2": "0.9978683407030075",
    "1min_VEU.csv-ensemble-rmse": "0.006333128083497286",
    "1min_VEU.csv-ensemble-mae": "0.003930207341909409",
    "1min_VEU.csv-ensemble-mse": "4.010851262137294e-05",
    "1min_VEU.csv-ensemble-test_length": 4771
}