{
    "1min_BTC.csv-ensemble-balance": 1000705,
    "1min_BTC.csv-ensemble-balance_without_predictions": 1001417,
    "1min_BTC.csv-ensemble-length": 29262,
    "1min_BTC.csv-ensemble-profit_per_step": 0.024092679926184128,
    "1min_BTC.csv-ensemble-normalized_profit": 242.854213655936,
    "1min_BTC.csv-ensemble-delta": 2.0222794349110405e-06,
    "1min_BTC.csv-ensemble-delta_without_predictions": 5.493708880353773e-06
}