{
    "1min_VOO.csv-hybrid-balance": 999292,
    "1min_VOO.csv-hybrid-balance_without_predictions": 1000708,
    "1min_VOO.csv-hybrid-length": 4741,
    "1min_VOO.csv-hybrid-profit_per_step": -0.1493355832102932,
    "1min_VOO.csv-hybrid-normalized_profit": -1505.3026787597553,
    "1min_VOO.csv-hybrid-delta": -1.783325830911208e-05,
    "1min_VOO.csv-hybrid-delta_without_predictions": 1.7858605722406305e-05
}