{
    "1min_JPM.csv-ensemble-basic-balance": 996524,
    "1min_JPM.csv-ensemble-basic-balance_without_predictions": 1001006,
    "1min_JPM.csv-ensemble-basic-length": 6264,
    "1min_JPM.csv-ensemble-basic-profit_per_step": -0.5549169859514687,
    "1min_JPM.csv-ensemble-basic-normalized_profit": -5593.563218390804,
    "1min_JPM.csv-ensemble-basic-delta": -5.789908946758194e-05,
    "1min_JPM.csv-ensemble-basic-delta_without_predictions": 1.6868038456278172e-05
}