{
    "1min_VOO.csv-ensemble-basic-balance": 1000435,
    "1min_VOO.csv-ensemble-basic-balance_without_predictions": 1000563,
    "1min_VOO.csv-ensemble-basic-length": 5927,
    "1min_VOO.csv-ensemble-basic-profit_per_step": 0.0733929475282605,
    "1min_VOO.csv-ensemble-basic-normalized_profit": 739.8009110848659,
    "1min_VOO.csv-ensemble-basic-delta": 7.494081381021269e-06,
    "1min_VOO.csv-ensemble-basic-delta_without_predictions": 1.1474827632529066e-05
}