{
    "1min_BTC.csv-ensemble-basic-r2": "0.9978664191326503",
    "1min_BTC.csv-ensemble-basic-rmse": "0.0022450927644968033",
    "1min_BTC.csv-ensemble-basic-mae": "0.0020874524489045143",
    "1min_BTC.csv-ensemble-basic-mse": "5.040441919845762e-06",
    "1min_BTC.csv-ensemble-basic-test_length": 29262
}