{
    "1min_AMZN.csv-ensemble-basic-balance": 997782,
    "1min_AMZN.csv-ensemble-basic-balance_without_predictions": 1001792,
    "1min_AMZN.csv-ensemble-basic-length": 5950,
    "1min_AMZN.csv-ensemble-basic-profit_per_step": -0.3727731092436975,
    "1min_AMZN.csv-ensemble-basic-normalized_profit": -3757.552941176471,
    "1min_AMZN.csv-ensemble-basic-delta": -3.884647755035016e-05,
    "1min_AMZN.csv-ensemble-basic-delta_without_predictions": 3.046968111677496e-05
}