{
    "1min_VEU.csv-ANN-r2": "0.9935434829803597",
    "1min_VEU.csv-ANN-rmse": "0.003280928358435631",
    "1min_VEU.csv-ANN-mae": "0.0017149505438283086",
    "1min_VEU.csv-ANN-mse": "1.0764491889858618e-05",
    "1min_VEU.csv-ANN-test_length": 2862
}