{
    "1min_AAPL.csv-arima-balance": 999885,
    "1min_AAPL.csv-arima-balance_without_predictions": 1000589,
    "1min_AAPL.csv-arima-length": 3254,
    "1min_AAPL.csv-arima-profit_per_step": -0.03534111862323294,
    "1min_AAPL.csv-arima-normalized_profit": -356.23847572218807,
    "1min_AAPL.csv-arima-delta": -6.856540306349335e-06,
    "1min_AAPL.csv-arima-delta_without_predictions": 1.8024221778055016e-05
}