{
    "1min_AAPL.csv-bi-lstm-balance": 999057,
    "1min_AAPL.csv-bi-lstm-balance_without_predictions": 1000731,
    "1min_AAPL.csv-bi-lstm-length": 10168,
    "1min_AAPL.csv-bi-lstm-profit_per_step": -0.09274193548387097,
    "1min_AAPL.csv-bi-lstm-normalized_profit": -934.8387096774194,
    "1min_AAPL.csv-bi-lstm-delta": -1.1412705427521203e-05,
    "1min_AAPL.csv-bi-lstm-delta_without_predictions": 7.055877100797408e-06
}