{
    "1min_JPM.csv-hybrid-basic-balance": 997196,
    "1min_JPM.csv-hybrid-basic-balance_without_predictions": 1000770,
    "1min_JPM.csv-hybrid-basic-length": 5011,
    "1min_JPM.csv-hybrid-basic-profit_per_step": -0.5595689483137098,
    "1min_JPM.csv-hybrid-basic-normalized_profit": -5640.454999002195,
    "1min_JPM.csv-hybrid-basic-delta": -5.8966811370847615e-05,
    "1min_JPM.csv-hybrid-basic-delta_without_predictions": 1.6198651892353005e-05
}