{
    "30min_JPM.csv-arima-balance": 998467,
    "30min_JPM.csv-arima-balance_without_predictions": 998919,
    "30min_JPM.csv-arima-length": 2252,
    "30min_JPM.csv-arima-profit_per_step": -0.6807282415630551,
    "30min_JPM.csv-arima-normalized_profit": -228.72468916518653,
    "30min_JPM.csv-arima-delta": -7.083550384699869e-05,
    "30min_JPM.csv-arima-delta_without_predictions": -4.828065866123471e-05
}