{
    "30min_BTC.csv-hybrid-basic-r2": "-1.1036994338495725",
    "30min_BTC.csv-hybrid-basic-rmse": "0.07186225801706314",
    "30min_BTC.csv-hybrid-basic-mae": "0.06253720819950104",
    "30min_BTC.csv-hybrid-basic-mse": "0.005164184141904116",
    "30min_BTC.csv-hybrid-basic-test_length": 780
}