{
    "30min_VEU.csv-basic_LSTM-r2": "0.9697470503791297",
    "30min_VEU.csv-basic_LSTM-rmse": "0.02398102357983589",
    "30min_VEU.csv-basic_LSTM-mae": "0.0166835468262434",
    "30min_VEU.csv-basic_LSTM-mse": "0.0005750895361416042",
    "30min_VEU.csv-basic_LSTM-test_length": 178
}