{
    "30min_VOO.csv-arima-r2": "0.995639604457048",
    "30min_VOO.csv-arima-rmse": "0.0029380116923340754",
    "30min_VOO.csv-arima-mae": "0.0023924992677241633",
    "30min_VOO.csv-arima-mse": "0.0008631912704291738",
    "30min_VOO.csv-arima-test_length": 2321
}