{
    "30min_BTC.csv-hybrid-basic-balance": 998651,
    "30min_BTC.csv-hybrid-basic-balance_without_predictions": 1001377,
    "30min_BTC.csv-hybrid-basic-length": 780,
    "30min_BTC.csv-hybrid-basic-profit_per_step": -1.7294871794871796,
    "30min_BTC.csv-hybrid-basic-normalized_profit": -581.1076923076923,
    "30min_BTC.csv-hybrid-basic-delta": -0.0001758667501197388,
    "30min_BTC.csv-hybrid-basic-delta_without_predictions": 0.00017967518000071368
}