{
    "30min_AMZN.csv-basic_LSTM-r2": "0.9897114719843428",
    "30min_AMZN.csv-basic_LSTM-rmse": "0.01572306454181671",
    "30min_AMZN.csv-basic_LSTM-mae": "0.009609409607946873",
    "30min_AMZN.csv-basic_LSTM-mse": "0.0002472147752996534",
    "30min_AMZN.csv-basic_LSTM-test_length": 341
}