{
    "30min_AAPL.csv-ensemble-r2": "0.9709692507128345",
    "30min_AAPL.csv-ensemble-rmse": "0.01946929283440113",
    "30min_AAPL.csv-ensemble-mae": "0.01507206354290247",
    "30min_AAPL.csv-ensemble-mse": "0.0003790533810388297",
    "30min_AAPL.csv-ensemble-test_length": 397
}