{
    "30min_ETH.csv-ANN-r2": "0.9932749637829055",
    "30min_ETH.csv-ANN-rmse": "0.0037000421434640884",
    "30min_ETH.csv-ANN-mae": "0.002716545481234789",
    "30min_ETH.csv-ANN-mse": "1.3690310879610479e-05",
    "30min_ETH.csv-ANN-test_length": 585
}