{
    "30min_VOO.csv-hybrid-balance": 999271,
    "30min_VOO.csv-hybrid-balance_without_predictions": 1000825,
    "30min_VOO.csv-hybrid-length": 290,
    "30min_VOO.csv-hybrid-profit_per_step": -2.513793103448276,
    "30min_VOO.csv-hybrid-normalized_profit": -844.6344827586207,
    "30min_VOO.csv-hybrid-delta": -0.0002584524536721242,
    "30min_VOO.csv-hybrid-delta_without_predictions": 0.00028915000894382106
}