{
    "30min_AMZN.csv-ensemble-balance": 999300,
    "30min_AMZN.csv-ensemble-balance_without_predictions": 1001696,
    "30min_AMZN.csv-ensemble-length": 341,
    "30min_AMZN.csv-ensemble-profit_per_step": -2.0527859237536656,
    "30min_AMZN.csv-ensemble-normalized_profit": -689.7360703812317,
    "30min_AMZN.csv-ensemble-delta": -0.00020662833700712171,
    "30min_AMZN.csv-ensemble-delta_without_predictions": 0.0005025823448209803
}