{
    "30min_AMZN.csv-ensemble-r2": "0.9749293185904039",
    "30min_AMZN.csv-ensemble-rmse": "0.02454390935599804",
    "30min_AMZN.csv-ensemble-mae": "0.016839517280459404",
    "30min_AMZN.csv-ensemble-mse": "0.0006024034810252488",
    "30min_AMZN.csv-ensemble-test_length": 341
}