{
    "30min_JPM.csv-hybrid-balance": 999868,
    "30min_JPM.csv-hybrid-balance_without_predictions": 1000800,
    "30min_JPM.csv-hybrid-length": 281,
    "30min_JPM.csv-hybrid-profit_per_step": -0.4697508896797153,
    "30min_JPM.csv-hybrid-normalized_profit": -157.83629893238432,
    "30min_JPM.csv-hybrid-delta": -5.23738454449686e-05,
    "30min_JPM.csv-hybrid-delta_without_predictions": 0.000285370959111488
}