{
    "30min_JPM.csv-bi-lstm-balance": 1000204,
    "30min_JPM.csv-bi-lstm-balance_without_predictions": 1000650,
    "30min_JPM.csv-bi-lstm-length": 351,
    "30min_JPM.csv-bi-lstm-profit_per_step": 0.5811965811965812,
    "30min_JPM.csv-bi-lstm-normalized_profit": 195.2820512820513,
    "30min_JPM.csv-bi-lstm-delta": 5.702332264777437e-05,
    "30min_JPM.csv-bi-lstm-delta_without_predictions": 0.00018367360894422773
}