{
    "30min_AAPL.csv-ensemble-basic-balance": 1000335,
    "30min_AAPL.csv-ensemble-basic-balance_without_predictions": 1000773,
    "30min_AAPL.csv-ensemble-basic-length": 397,
    "30min_AAPL.csv-ensemble-basic-profit_per_step": 0.8438287153652393,
    "30min_AAPL.csv-ensemble-basic-normalized_profit": 283.52644836272043,
    "30min_AAPL.csv-ensemble-basic-delta": 8.250799727112924e-05,
    "30min_AAPL.csv-ensemble-basic-delta_without_predictions": 0.0002007960849651448
}