{
    "30min_AMZN.csv-ensemble-basic-r2": "0.9769283210330478",
    "30min_AMZN.csv-ensemble-basic-rmse": "0.02354508265852928",
    "30min_AMZN.csv-ensemble-basic-mae": "0.015367968007922173",
    "30min_AMZN.csv-ensemble-basic-mse": "0.0005543709266930819",
    "30min_AMZN.csv-ensemble-basic-test_length": 341
}