{
    "30min_VOO.csv-ANN-r2": "0.9770577685895386",
    "30min_VOO.csv-ANN-rmse": "0.010334651917219162",
    "30min_VOO.csv-ANN-mae": "0.007519572041928768",
    "30min_VOO.csv-ANN-mse": "0.00010680501873139292",
    "30min_VOO.csv-ANN-test_length": 217
}