{
    "60min_AAPL.csv-ANN-r2": "0.9876709798031419",
    "60min_AAPL.csv-ANN-rmse": "0.010019068606197834",
    "60min_AAPL.csv-ANN-mae": "0.007144315633922815",
    "60min_AAPL.csv-ANN-mse": "0.00010038173059001565",
    "60min_AAPL.csv-ANN-test_length": 190
}