{
    "60min_BTC.csv-hybrid-basic-balance": 998411,
    "60min_BTC.csv-hybrid-basic-balance_without_predictions": 1001589,
    "60min_BTC.csv-hybrid-basic-length": 878,
    "60min_BTC.csv-hybrid-basic-profit_per_step": -1.8097949886104783,
    "60min_BTC.csv-hybrid-basic-normalized_profit": -304.04555808656033,
    "60min_BTC.csv-hybrid-basic-delta": -0.00017975376199846088,
    "60min_BTC.csv-hybrid-basic-delta_without_predictions": 0.00017975376199846088
}