{
    "60min_ETH.csv-ensemble-r2": "0.9708752559261247",
    "60min_ETH.csv-ensemble-rmse": "0.007521535269916058",
    "60min_ETH.csv-ensemble-mae": "0.005922125652432442",
    "60min_ETH.csv-ensemble-mse": "5.657349174725823e-05",
    "60min_ETH.csv-ensemble-test_length": 780
}