{
    "60min_JPM.csv-basic_LSTM-r2": "0.9557378138522207",
    "60min_JPM.csv-basic_LSTM-rmse": "0.011077729985117912",
    "60min_JPM.csv-basic_LSTM-mae": "0.008343898691236973",
    "60min_JPM.csv-basic_LSTM-mse": "0.0001227161119459197",
    "60min_JPM.csv-basic_LSTM-test_length": 297
}