{
    "60min_BTC.csv-hybrid-r2": "-12.630908226036286",
    "60min_BTC.csv-hybrid-rmse": "0.14756318926811218",
    "60min_BTC.csv-hybrid-mae": "0.14204728603363037",
    "60min_BTC.csv-hybrid-mse": "0.021774897351861",
    "60min_BTC.csv-hybrid-test_length": 878
}