{
    "60min_BTC.csv-ensemble-r2": "0.9696005372928685",
    "60min_BTC.csv-ensemble-rmse": "0.006990896537899971",
    "60min_BTC.csv-ensemble-mae": "0.005090033169835806",
    "60min_BTC.csv-ensemble-mse": "4.887263639830053e-05",
    "60min_BTC.csv-ensemble-test_length": 780
}