{
    "60min_VOO.csv-arima-balance": 997503,
    "60min_VOO.csv-arima-balance_without_predictions": 1000039,
    "60min_VOO.csv-arima-length": 1227,
    "60min_VOO.csv-arima-profit_per_step": -2.035044824775876,
    "60min_VOO.csv-arima-normalized_profit": -341.8875305623472,
    "60min_VOO.csv-arima-delta": -0.00020941928277066772,
    "60min_VOO.csv-arima-delta_without_predictions": 4.0457753081661354e-06
}