{
    "60min_JPM.csv-ensemble-basic-balance": 999300,
    "60min_JPM.csv-ensemble-basic-balance_without_predictions": 1000052,
    "60min_JPM.csv-ensemble-basic-length": 297,
    "60min_JPM.csv-ensemble-basic-profit_per_step": -2.356902356902357,
    "60min_JPM.csv-ensemble-basic-normalized_profit": -395.95959595959596,
    "60min_JPM.csv-ensemble-basic-delta": -0.00023266518956472398,
    "60min_JPM.csv-ensemble-basic-delta_without_predictions": 2.2934394824640664e-05
}