{
    "60min_AAPL.csv-ANN-balance": 1000481,
    "60min_AAPL.csv-ANN-balance_without_predictions": 1000905,
    "60min_AAPL.csv-ANN-length": 190,
    "60min_AAPL.csv-ANN-profit_per_step": 2.531578947368421,
    "60min_AAPL.csv-ANN-normalized_profit": 425.30526315789473,
    "60min_AAPL.csv-ANN-delta": 0.00025152276156050195,
    "60min_AAPL.csv-ANN-delta_without_predictions": 0.0004808178871176676
}