{
    "60min_BTC.csv-bi-lstm-balance": 1003143,
    "60min_BTC.csv-bi-lstm-balance_without_predictions": 1002005,
    "60min_BTC.csv-bi-lstm-length": 780,
    "60min_BTC.csv-bi-lstm-profit_per_step": 4.029487179487179,
    "60min_BTC.csv-bi-lstm-normalized_profit": 676.9538461538461,
    "60min_BTC.csv-bi-lstm-delta": 0.00040227171420270153,
    "60min_BTC.csv-bi-lstm-delta_without_predictions": 0.00025698447748503933
}