{
    "daily_AAPL.csv-hybrid-r2": "-3.0545861600443995",
    "daily_AAPL.csv-hybrid-rmse": "0.2654065489768982",
    "daily_AAPL.csv-hybrid-mae": "0.23773206770420074",
    "daily_AAPL.csv-hybrid-mse": "0.07044064253568649",
    "daily_AAPL.csv-hybrid-test_length": 468
}