{
    "daily_AAPL.csv-basic_LSTM-balance": 1000663,
    "daily_AAPL.csv-basic_LSTM-balance_without_predictions": 1005367,
    "daily_AAPL.csv-basic_LSTM-length": 416,
    "daily_AAPL.csv-basic_LSTM-profit_per_step": 1.59375,
    "daily_AAPL.csv-basic_LSTM-normalized_profit": 11.15625,
    "daily_AAPL.csv-basic_LSTM-delta": 0.0001560135011998997,
    "daily_AAPL.csv-basic_LSTM-delta_without_predictions": 0.001293806782952831
}