{
    "daily_AMZN.csv-hybrid-balance": 999376,
    "daily_AMZN.csv-hybrid-balance_without_predictions": 1000624,
    "daily_AMZN.csv-hybrid-length": 281,
    "daily_AMZN.csv-hybrid-profit_per_step": -2.2206405693950177,
    "daily_AMZN.csv-hybrid-normalized_profit": -15.544483985765124,
    "daily_AMZN.csv-hybrid-delta": -0.0002249583436403538,
    "daily_AMZN.csv-hybrid-delta_without_predictions": 0.0002249583436403538
}