{
    "daily_VOO.csv-bi-lstm-r2": "0.6733704724692311",
    "daily_VOO.csv-bi-lstm-rmse": "0.026257187128067017",
    "daily_VOO.csv-bi-lstm-mae": "0.021227162331342697",
    "daily_VOO.csv-bi-lstm-mse": "0.0006894398829899728",
    "daily_VOO.csv-bi-lstm-test_length": 116
}