{
    "daily_VEU.csv-ANN-balance": 1001234,
    "daily_VEU.csv-ANN-balance_without_predictions": 999074,
    "daily_VEU.csv-ANN-length": 91,
    "daily_VEU.csv-ANN-profit_per_step": 13.56043956043956,
    "daily_VEU.csv-ANN-normalized_profit": 94.92307692307692,
    "daily_VEU.csv-ANN-delta": 0.0013613696289465629,
    "daily_VEU.csv-ANN-delta_without_predictions": -0.0010211804642786888
}