{
    "daily_VEU.csv-ANN-r2": "0.8978229749408619",
    "daily_VEU.csv-ANN-rmse": "0.024598054587841034",
    "daily_VEU.csv-ANN-mae": "0.01844668574631214",
    "daily_VEU.csv-ANN-mse": "0.0006050643278285861",
    "daily_VEU.csv-ANN-test_length": 91
}