{
    "daily_BTC.csv-ensemble-basic-balance": 999466,
    "daily_BTC.csv-ensemble-basic-balance_without_predictions": 1000864,
    "daily_BTC.csv-ensemble-basic-length": 110,
    "daily_BTC.csv-ensemble-basic-profit_per_step": -4.8545454545454545,
    "daily_BTC.csv-ensemble-basic-normalized_profit": -33.981818181818184,
    "daily_BTC.csv-ensemble-basic-delta": -0.0004841155186445327,
    "daily_BTC.csv-ensemble-basic-delta_without_predictions": 0.0007846450820164361
}