{
    "daily_AMZN.csv-hybrid-basic-balance": 999376,
    "daily_AMZN.csv-hybrid-basic-balance_without_predictions": 1000624,
    "daily_AMZN.csv-hybrid-basic-length": 281,
    "daily_AMZN.csv-hybrid-basic-profit_per_step": -2.2206405693950177,
    "daily_AMZN.csv-hybrid-basic-normalized_profit": -15.544483985765124,
    "daily_AMZN.csv-hybrid-basic-delta": -0.0002249583436403538,
    "daily_AMZN.csv-hybrid-basic-delta_without_predictions": 0.0002249583436403538
}