{
    "daily_VOO.csv-ensemble-balance": 1000002,
    "daily_VOO.csv-ensemble-balance_without_predictions": 1000484,
    "daily_VOO.csv-ensemble-length": 116,
    "daily_VOO.csv-ensemble-profit_per_step": 0.017241379310344827,
    "daily_VOO.csv-ensemble-normalized_profit": 0.12068965517241378,
    "daily_VOO.csv-ensemble-delta": 7.092144023420399e-06,
    "daily_VOO.csv-ensemble-delta_without_predictions": 0.0004243186495796584
}