{
    "daily_BTC.csv-ensemble-r2": "0.865239503223671",
    "daily_BTC.csv-ensemble-rmse": "0.021622344851493835",
    "daily_BTC.csv-ensemble-mae": "0.01567802205681801",
    "daily_BTC.csv-ensemble-mse": "0.0004675258242059499",
    "daily_BTC.csv-ensemble-test_length": 110
}