{
    "daily_BTC.csv-hybrid-balance": 1000196,
    "daily_BTC.csv-hybrid-balance_without_predictions": 999804,
    "daily_BTC.csv-hybrid-length": 123,
    "daily_BTC.csv-hybrid-profit_per_step": 1.5934959349593496,
    "daily_BTC.csv-hybrid-normalized_profit": 11.154471544715447,
    "daily_BTC.csv-hybrid-delta": 0.0001596629684828147,
    "daily_BTC.csv-hybrid-delta_without_predictions": -0.0001596629684828147
}